[
	{"path": "avatar/monsters.dat", "type": "avatar", "cache": false},
	{"path": "avatar/knight.dat", "type": "avatar", "cache": false},
	
	{"path": "ui/hightlight_ring.png"},
	
	{"path": "icon/skill_point.png"},
	{"path": "icon/back.png"},
	{"path": "icon/ability_warrior_charge.jpg"},
	{"path": "icon/ability_warrior_savageblow.jpg"},
	{"path": "icon/ability_warrior_rallyingcry.jpg"},
	{"path": "icon/spell_frost_frostbolt02.jpg"},
	{"path": "icon/spell_frost_frostnova.jpg"},
	{"path": "icon/inv_potion_93.jpg"},
	{"path": "icon/inv_axe_01.jpg"},
	{"path": "icon/inv_sword_36.jpg"},
	
	{"id": "particle_10201_config", "path": "particle/particle.pex"},
	{"id": "particle_10201_texture", "path": "particle/texture.png"},
	
	{"path": "map/bg.png"},
	{"path": "map/tree.png"},
	{"path": "map/cloud.png"},
	
	{"path": "test.dam"},
	
	{"path": "data/levelups.json", "type": "data/levelups", "cache": false},
	{"path": "data/skill_10000.json", "type": "data/skill", "cache": false},
	{"path": "data/skill_10101.json", "type": "data/skill", "cache": false},
	{"path": "data/skill_10102.json", "type": "data/skill", "cache": false},
	{"path": "data/skill_10103.json", "type": "data/skill", "cache": false},
	{"path": "data/skill_10201.json", "type": "data/skill", "cache": false},
	{"path": "data/skill_10202.json", "type": "data/skill", "cache": false},
	{"path": "data/skill_30011.json", "type": "data/skill", "cache": false},
	{"path": "data/item_1001.json", "type": "data/item", "cache": false},
	{"path": "data/item_1002.json", "type": "data/item", "cache": false},
	{"path": "data/item_3001.json", "type": "data/item", "cache": false},
	{"path": "data/character_101.json", "type": "data/character", "cache": false},
	{"path": "data/character_102.json", "type": "data/character", "cache": false},
	{"path": "data/character_201.json", "type": "data/character", "cache": false},
	{"path": "data/map_test.json", "type": "data/map", "cache": false}
]