{
	"id": 102,
	"name": "Mage",
	"levelProperties":
	[
		{
			"strength": 20,
			"agile": 20,
			"intelligence": 30,
			"attackMin": 30,
			"attackMax": 40,
			"attackAmendValue": 0,
			"attackAmendRatio": 0,
			"defenceAmendValue": 0,
			"defenceAmendRatio": 0.2,
			"spellDamageAmendValue": 0,
			"spellDamageAmendRatio": 0,
			"spellReductionValue": 0,
			"spellReductionRatio": 0.1,
			"critChance": 0.2,
			"critBonusRatio": 0.5,
			"attackSpeed": 1,
			"attackSpeedAmendRatio": 0,
			"attackRange": 150,
			"missileSpeed": 500,
			"hpMax": 400,
			"hpRegen": 0,
			"hpRegenAmendValue": 0,
			"hpRegenAmendRatio": 0,
			"mpMax": 300,
			"mpRegen": 0,
			"mpRegenAmendValue": 0,
			"mpRegenAmendRatio": 0,
			"moveSpeedAmendValue": 150,
			"hitTestWidth": 30,
			"hitTestHeight": 15,
			"dropExp": 10
		},
		{
			"strength": 21,
			"agile": 21,
			"intelligence": 23
		}
	],
	"levelUpId": 1,
	"levelCap": 2,
	"inventoryCap": 6,
	"availableSkills": [10201, 10202, 10000],
	"avatar":
	{
		"armature": "knight",
		"tintParts": ["body"],
		"width": 90,
		"height": 60,
		"offsetX": 0,
		"offsetY": 0
	}
}