{
	"id": 1001,
	"name": "sword",
	"type": 1,
	"levelProperties":
	[
		{
			"attackMin": 10,
			"attackMax": 20,
			"attackSpeed": -0.2
		}
	],
	"skillIds": [10202],
	
	"icon": "icon/inv_sword_36.jpg",
	"avatar":
	{
		"armature": "knight",
		"texture": "knightFolder/sword"
	}
}