{
	"id": 10201,
	"name": "Frost Nova",
	"levelProperties":
	[
		{
			"isPassitive": false,
			"cooldown": 15,
			"targetCharacterType": 4,
			"castTargetType": 3,
			"castTargetMaxNumber": 0,
			"castDistance": 0,
			"castEffectRange": 100,
			"casterPropertyCost":
			{
				"mp": 75
			},
			"castTime": 0,
			"channelTime": 0,
			"effects":
			[
				{"name": "SlowMove", "duration": 3, "ratio": 1}
			]
		},
		{
			"cooldown": 12
		}
	],
	
	"icon": "icon/spell_frost_frostnova.jpg",
	"particle": {"config": "particle_10201_config", "texture": "particle_10201_texture", "num": 36}
}