{
	"id": 10103,
	"name": "Courage Aura",
	"levelProperties":
	[
		{
			"isPassitive": true,
			"targetCharacterType": 2,
			"castTargetType": 3,
			"castTargetMaxNumber": 5,
			"castEffectRange": 200,
			"effects":
			[
				{"name": "AddProperty", "duration": 999999, "properties": {"hpMax": 100}}
			]
		},
		{
			"effects":
			[
				{"name": "AddProperty", "duration": 999999, "properties": {"hpMax": 150}}
			]
		}
	],
	
	"icon": "icon/ability_warrior_rallyingcry.jpg"
}