{
	"id": 10101,
	"nextLevelSkillId": 10111,
	"name": "Charge",
	"levelProperties":
	[
		{
			"isPassitive": false,
			"cooldown": 15,
			"targetCharacterType": 4,
			"castTargetType": 1,
			"castTargetMaxNumber": 1,
			"castDistance": 150,
			"castEffectRange": 0,
			"casterPropertyCost":
			{
				"mp": 50
			},
			"castTime": 0,
			"channelTime": 0,
			"effects":
			[
				{"name": "Teleport"},
				{"name": "Stun", "duration": 1.5},
				{"name": "PhysicalDamage", "damage": 50}
			]
		},
		{
			"castDistance": 200
		}
	],
	
	"icon": "icon/ability_warrior_charge.jpg"
}