[
	[
		{"name": "Cooldown -", "unit": "%", "v0": 0, "v1": 10, "orbs": 5},
		{"name": "Cooldown -", "unit": "%", "v0": 10, "v1": 20, "orbs": 10},
		{"name": "Cooldown -", "unit": "%", "v0": 20, "v1": 30, "orbs": 20},
		{"name": "Cooldown -", "unit": "%", "v0": 30, "v1": 40, "orbs": 30},
		{"name": "Cooldown -", "unit": "%", "v0": 40, "v1": 50, "orbs": 40}
	],
	[
		{"name": "Duration +", "unit": "%", "v0": 0, "v1": 10, "orbs": 5},
		{"name": "Duration +", "unit": "%", "v0": 10, "v1": 20, "orbs": 10},
		{"name": "Duration +", "unit": "%", "v0": 20, "v1": 30, "orbs": 20},
		{"name": "Duration +", "unit": "%", "v0": 30, "v1": 40, "orbs": 30},
		{"name": "Duration +", "unit": "%", "v0": 40, "v1": 50, "orbs": 40}
	],
	[
		{"name": "Speed +", "unit": "%", "v0": 0, "v1": 10, "orbs": 5},
		{"name": "Speed +", "unit": "%", "v0": 10, "v1": 20, "orbs": 10},
		{"name": "Speed +", "unit": "%", "v0": 20, "v1": 30, "orbs": 20},
		{"name": "Speed +", "unit": "%", "v0": 30, "v1": 40, "orbs": 30},
		{"name": "Speed +", "unit": "%", "v0": 40, "v1": 50, "orbs": 40}
	],
	[
		{"name": "Life Regen +", "unit": "%", "v0": 0, "v1": 10, "orbs": 5},
		{"name": "Life Regen +", "unit": "%", "v0": 10, "v1": 20, "orbs": 10},
		{"name": "Life Regen +", "unit": "%", "v0": 20, "v1": 30, "orbs": 20},
		{"name": "Life Regen +", "unit": "%", "v0": 30, "v1": 40, "orbs": 30},
		{"name": "Life Regen +", "unit": "%", "v0": 40, "v1": 50, "orbs": 40}
	]
]